3000 100 20 0.185257 0.28131
3000 120 24 0.195681 0.282708
3000 140 28 0.203643 0.283081
3000 160 32 0.209958 0.283967
3000 180 36 0.215285 0.284744
3000 200 40 0.219802 0.285825
3000 220 44 0.223159 0.285532
3000 240 48 0.226535 0.285754
3000 260 52 0.22949 0.285759
3000 280 56 0.232408 0.28683
3000 300 60 0.234428 0.287263
