1000 300 60 0.24023 0.288083
1200 300 60 0.239528 0.288094
1400 300 60 0.238631 0.287974
1600 300 60 0.237715 0.287719
1800 300 60 0.236996 0.286793
2000 300 60 0.236665 0.287895
2200 300 60 0.23607 0.287215
2400 300 60 0.235488 0.288221
2600 300 60 0.235024 0.287481
2800 300 60 0.234606 0.28647
3000 300 60 0.234233 0.287578
