1000 300 60 0.240597 0.288303
1200 300 60 0.239339 0.288528
1400 300 60 0.23835 0.287617
1600 300 60 0.238135 0.287269
1800 300 60 0.23705 0.287569
2000 300 60 0.236753 0.287513
2200 300 60 0.236139 0.287373
2400 300 60 0.235675 0.287792
2600 300 60 0.235338 0.287659
2800 300 60 0.23475 0.28754
3000 300 60 0.23444 0.287633
