digraph G {
node [shape=box];

A [label="", shape=circle];
B [label="Programming"];
C [label="Language"];
D [label="Java"];
E [label="Haskell"];
F [label="French"];
G [label="English"];

A -> B;
A -> C;
B -> D;
B -> E;
C -> F;
C -> G;
}

