digraph G {
rankdir=LR;
node [shape=box];

A [label="", shape=circle];
B [label="x=Y"];
C [label="x=N"];
D [label="y=Y"];
E [label="y=N"];
F [label="y=Y"];
G [label="y=N"];

A -> B;
A -> C;
B -> D [label="1-p"];
B -> E [label="p"];
C -> F [label="p"];
C -> G [label="1-p"];
}

