1000 500 0.734704 0.913244
1000 500 0.828932 0.933435
1000 500 0.915389 0.944723
1000 500 0.0739414 0.0902907
1000 500 0.137292 0.165353
1000 500 0.955341 0.968627
1000 500 0.134758 0.161657
1000 500 0.885627 0.953712
1000 500 0.254104 1.13296
