1000 700 0.792213 0.928075
1000 700 0.859508 0.945874
1000 700 0.958347 0.976596
1000 700 0.0798741 0.0928895
1000 700 0.147904 0.169429
1000 700 0.938901 0.940707
1000 700 0.144662 0.169139
1000 700 0.925988 0.967977
1000 700 0.309982 1.06805
