1000 1000 0.811194 0.923343
1000 1000 0.896373 0.959005
1000 1000 0.944633 0.95966
1000 1000 0.0811346 0.0929907
1000 1000 0.149451 0.169532
1000 1000 0.959146 0.956635
1000 1000 0.151395 0.171093
1000 1000 0.926924 0.950955
1000 1000 0.361736 1.02092
