1000 1000 0.821973 0.916068
1000 1000 0.904268 0.95867
1000 1000 0.946583 0.935748
1000 1000 0.0834046 0.0943727
1000 1000 0.153134 0.169252
1000 1000 0.970013 0.969711
1000 1000 0.153016 0.172519
1000 1000 0.915398 0.933125
1000 1000 0.36965 1.04286
