1000 300 0.638538 0.856005
1000 300 0.723663 0.833525
1000 300 0.9049 0.910719
1000 300 0.0664582 0.0870207
1000 300 0.120751 0.157727
1000 300 0.909137 0.925711
1000 300 0.125709 0.161583
1000 300 0.816109 0.895596
1000 300 0.16992 1.21049
