1000 100 0.388875 0.741759
1000 100 0.504524 0.741831
1000 100 0.900025 0.925692
1000 100 0.03929 0.0724857
1000 100 0.0837988 0.150423
1000 100 0.775014 0.7981
1000 100 0.0796305 0.145014
1000 100 0.756194 0.936847
