1000 100 0.405934 0.772815
1000 100 0.540493 0.80855
1000 100 0.783444 0.796031
1000 100 0.0448634 0.082606
1000 100 0.0822045 0.138894
1000 100 0.759922 0.788019
1000 100 0.0735712 0.129726
1000 100 0.704601 0.900373
