1000 600 0.770671 0.918988
1000 600 0.858224 0.942661
1000 600 0.951739 0.968659
1000 600 0.0781901 0.0925337
1000 600 0.141829 0.164978
1000 600 0.942288 0.952673
1000 600 0.140908 0.165792
1000 600 0.913614 0.954901
1000 600 0.288971 1.13336
