1.024,0.27360000000000006,0.27360000000000006,0.07293999999999999
2.048,0.216600000000000016,0.216600000000000016,0.07339999999999998
4.096,0.166160000000000055,0.166160000000000055,0.07383999999999993
8.192,0.111849999999999964,0.111849999999999964,0.07815000000000003
16.384,0.017959999999999924,0.017959999999999924,0.08204000000000009
32.768,1.9999999999999998E-4,1.9999999999999998E-4,0.0298
65.536,0.0,0.0,0.0
