1000 100 0 0.0373069
1000 100 0 0.0221887
1000 100 0 0.00270343
1000 100 0.70832 0.736753
1000 100 0.704571 0.711565
1000 100 0.000704571 0.00238156
1000 100 0.75718 0.770289
1000 100 0.00075718 0.0115923
