1000 300 0 0.0425731
1000 300 0 0.0240029
1000 300 0 0.00212692
1000 300 0.779553 0.767199
1000 300 0.754152 0.758403
1000 300 0.000754152 0.00296174
1000 300 0.742618 0.75754
1000 300 0.000742618 0.0130587
1000 300 -0.844999 -0.228542
