1000 100 0 0.0430146
1000 100 0 0.0229987
1000 100 0 0.00148438
1000 100 0.75634 0.768161
1000 100 0.695264 0.695276
1000 100 0.000695264 0.00321528
1000 100 0.704195 0.702511
1000 100 0.000704195 0.0115653
