1000 150 0 0.038374
1000 150 0 0.0231681
1000 150 0 0.00195158
1000 150 0.79806 0.802462
1000 150 0.648729 0.6651
1000 150 0.000648729 0.00295843
1000 150 0.659755 0.661902
1000 150 0.000659755 0.0113522
