1000 250 0 0.0431332
1000 250 0 0.0229453
1000 250 0 0.00224441
1000 250 0.82238 0.819418
1000 250 0.707019 0.712101
1000 250 0.000707019 0.0029081
1000 250 0.758667 0.749709
1000 250 0.000758667 0.0128126
1000 250 -0.879999 -0.321611
