100 0.000000 0.000000 0.000000 0.783360 0.653548 0.000654 0.745772 0.000746 
150 0.000000 0.000000 0.000000 0.800833 0.711491 0.000711 0.727891 0.000728 
200 0.000000 0.000000 0.000000 0.792135 0.742494 0.000742 0.718355 0.000718 
250 0.000000 0.000000 0.000000 0.822380 0.707019 0.000707 0.758667 0.000759 
300 0.000000 0.000000 0.000000 0.834757 0.752092 0.000752 0.673842 0.000674 
