1000 100 20 0.19639 0.24491
1000 120 24 0.205183 0.25095
1000 140 28 0.2127 0.255714
1000 160 32 0.2186 0.2581
1000 180 36 0.223694 0.260194
1000 200 40 0.227335 0.261595
1000 220 44 0.229941 0.263841
1000 240 48 0.233854 0.264863
1000 260 52 0.236281 0.267204
1000 280 56 0.2384 0.267579
1000 300 60 0.240163 0.268897
1200 100 20 0.194425 0.243108
1200 120 24 0.203764 0.249972
1200 140 28 0.211036 0.25325
1200 160 32 0.216724 0.256359
1200 180 36 0.221384 0.259384
1200 200 40 0.226221 0.260854
1200 220 44 0.22933 0.261655
1200 240 48 0.232399 0.264934
1200 260 52 0.23467 0.265535
1200 280 56 0.237313 0.266991
1200 300 60 0.239283 0.268094
1400 100 20 0.193321 0.244121
1400 120 24 0.202042 0.247399
1400 140 28 0.209663 0.25302
1400 160 32 0.215893 0.255839
1400 180 36 0.220766 0.258171
1400 200 40 0.2245 0.260071
1400 220 44 0.228354 0.261867
1400 240 48 0.231253 0.26364
1400 260 52 0.234206 0.265635
1400 280 56 0.236599 0.267589
1400 300 60 0.23834 0.268445
1600 100 20 0.191537 0.242238
1600 120 24 0.201286 0.247995
1600 140 28 0.208696 0.252625
1600 160 32 0.214961 0.255547
1600 180 36 0.219747 0.25808
1600 200 40 0.223772 0.260666
1600 220 44 0.227653 0.262205
1600 240 48 0.23038 0.263667
1600 260 52 0.233332 0.26538
1600 280 56 0.235705 0.265973
1600 300 60 0.237769 0.26656
1800 100 20 0.190478 0.242644
1800 120 24 0.200162 0.247421
1800 140 28 0.207798 0.251671
1800 160 32 0.213844 0.254135
1800 180 36 0.219167 0.257728
1800 200 40 0.223203 0.259775
1800 220 44 0.227068 0.262326
1800 240 48 0.230155 0.263729
1800 260 52 0.232592 0.265062
1800 280 56 0.235161 0.266669
1800 300 60 0.237213 0.267943
2000 100 20 0.189505 0.240485
2000 120 24 0.199417 0.246725
2000 140 28 0.20645 0.249593
2000 160 32 0.212869 0.254206
2000 180 36 0.218378 0.256978
2000 200 40 0.222598 0.258782
2000 220 44 0.225855 0.261209
2000 240 48 0.228983 0.262225
2000 260 52 0.231763 0.26509
2000 280 56 0.234861 0.265821
2000 300 60 0.23666 0.26695
2200 100 20 0.188218 0.241227
2200 120 24 0.198523 0.245583
2200 140 28 0.205981 0.250364
2200 160 32 0.21246 0.253545
2200 180 36 0.216922 0.256326
2200 200 40 0.221632 0.258355
2200 220 44 0.22556 0.261506
2200 240 48 0.228227 0.262114
2200 260 52 0.231306 0.264072
2200 280 56 0.233859 0.265593
2200 300 60 0.236298 0.266647
2400 100 20 0.187775 0.240817
2400 120 24 0.197455 0.245288
2400 140 28 0.205798 0.250685
2400 160 32 0.21168 0.253586
2400 180 36 0.216769 0.256176
2400 200 40 0.221154 0.259
2400 220 44 0.224919 0.260627
2400 240 48 0.228269 0.262252
2400 260 52 0.230912 0.264107
2400 280 56 0.233539 0.264943
2400 300 60 0.235783 0.2659
2600 100 20 0.187123 0.240631
2600 120 24 0.196968 0.244538
2600 140 28 0.204786 0.250154
2600 160 32 0.210825 0.25293
2600 180 36 0.216605 0.256387
2600 200 40 0.220452 0.257825
2600 220 44 0.224124 0.26053
2600 240 48 0.227572 0.262236
2600 260 52 0.230413 0.263333
2600 280 56 0.233183 0.264839
2600 300 60 0.235276 0.266486
2800 100 20 0.185989 0.239396
2800 120 24 0.196143 0.245798
2800 140 28 0.204411 0.250212
2800 160 32 0.210446 0.252813
2800 180 36 0.215496 0.255599
2800 200 40 0.219875 0.257771
2800 220 44 0.22393 0.259446
2800 240 48 0.226734 0.26193
2800 260 52 0.229754 0.263136
2800 280 56 0.232482 0.264199
2800 300 60 0.234765 0.265492
3000 100 20 0.185587 0.23918
3000 120 24 0.195408 0.244797
3000 140 28 0.203562 0.248395
3000 160 32 0.210146 0.252433
3000 180 36 0.215363 0.255685
3000 200 40 0.219662 0.257498
3000 220 44 0.223376 0.259555
3000 240 48 0.226593 0.261626
3000 260 52 0.229596 0.263181
3000 280 56 0.232164 0.265055
3000 300 60 0.234186 0.265574
