1000 100 20 0.19712 0.2455
1000 120 24 0.205683 0.250183
1000 140 28 0.212343 0.254186
1000 160 32 0.218262 0.2575
1000 180 36 0.222244 0.259356
1000 200 40 0.227415 0.261895
1000 220 44 0.230555 0.264018
1000 240 48 0.234054 0.265746
1000 260 52 0.236358 0.267142
1000 280 56 0.238389 0.268275
1000 300 60 0.240433 0.26862
1200 100 20 0.195483 0.244033
1200 120 24 0.203653 0.249431
1200 140 28 0.211792 0.253482
1200 160 32 0.217193 0.256526
1200 180 36 0.221574 0.259167
1200 200 40 0.225604 0.260629
1200 220 44 0.229519 0.262678
1200 240 48 0.232188 0.265153
1200 260 52 0.235016 0.266388
1200 280 56 0.237557 0.267402
1200 300 60 0.239353 0.268208
1400 100 20 0.192893 0.243164
1400 120 24 0.202625 0.247839
1400 140 28 0.209403 0.253495
1400 160 32 0.216022 0.256219
1400 180 36 0.22102 0.258861
1400 200 40 0.224739 0.260339
1400 220 44 0.228779 0.262812
1400 240 48 0.231179 0.263673
1400 260 52 0.234242 0.266077
1400 280 56 0.236602 0.267112
1400 300 60 0.238721 0.268174
1600 100 20 0.191412 0.244
1600 120 24 0.201953 0.24837
1600 140 28 0.209388 0.252871
1600 160 32 0.215125 0.255797
1600 180 36 0.219767 0.256955
1600 200 40 0.224013 0.261175
1600 220 44 0.227091 0.262642
1600 240 48 0.230318 0.263135
1600 260 52 0.233394 0.265596
1600 280 56 0.235703 0.266623
1600 300 60 0.237894 0.266944
1800 100 20 0.190739 0.242628
1800 120 24 0.200333 0.247444
1800 140 28 0.208421 0.252151
1800 160 32 0.213972 0.254403
1800 180 36 0.218969 0.257383
1800 200 40 0.222939 0.258978
1800 220 44 0.227146 0.261646
1800 240 48 0.229516 0.264206
1800 260 52 0.232667 0.265359
1800 280 56 0.23479 0.265821
1800 300 60 0.237304 0.26677
2000 100 20 0.189435 0.242325
2000 120 24 0.199396 0.246696
2000 140 28 0.2069 0.250879
2000 160 32 0.213491 0.254716
2000 180 36 0.217903 0.257392
2000 200 40 0.222515 0.25981
2000 220 44 0.225936 0.261455
2000 240 48 0.229031 0.262665
2000 260 52 0.231944 0.264637
2000 280 56 0.234714 0.265975
2000 300 60 0.236457 0.267107
2200 100 20 0.188395 0.24125
2200 120 24 0.198492 0.246333
2200 140 28 0.205955 0.250266
2200 160 32 0.212503 0.253815
2200 180 36 0.217538 0.25673
2200 200 40 0.221657 0.258193
2200 220 44 0.225337 0.260081
2200 240 48 0.22865 0.26268
2200 260 52 0.231717 0.264455
2200 280 56 0.233729 0.265599
2200 300 60 0.236082 0.266858
2400 100 20 0.187575 0.240608
2400 120 24 0.197625 0.24484
2400 140 28 0.205446 0.249815
2400 160 32 0.21156 0.253586
2400 180 36 0.216699 0.256556
2400 200 40 0.221379 0.2588
2400 220 44 0.22507 0.260062
2400 240 48 0.228063 0.262382
2400 260 52 0.230965 0.263689
2400 280 56 0.233204 0.265118
2400 300 60 0.235522 0.266172
2600 100 20 0.186881 0.239865
2600 120 24 0.197516 0.246324
2600 140 28 0.204701 0.25064
2600 160 32 0.211226 0.253611
2600 180 36 0.216306 0.25672
2600 200 40 0.220862 0.258188
2600 220 44 0.224287 0.260916
2600 240 48 0.22753 0.262136
2600 260 52 0.23045 0.26403
2600 280 56 0.232644 0.265207
2600 300 60 0.235295 0.266049
2800 100 20 0.186304 0.239768
2800 120 24 0.196765 0.245211
2800 140 28 0.203819 0.249054
2800 160 32 0.210502 0.252592
2800 180 36 0.215671 0.255321
2800 200 40 0.220282 0.258421
2800 220 44 0.223933 0.260563
2800 240 48 0.227112 0.262177
2800 260 52 0.230117 0.262883
2800 280 56 0.232852 0.265349
2800 300 60 0.234763 0.266544
3000 100 20 0.185767 0.23978
3000 120 24 0.195483 0.244644
3000 140 28 0.203843 0.250229
3000 160 32 0.210131 0.252552
3000 180 36 0.215417 0.255354
3000 200 40 0.219568 0.258065
3000 220 44 0.223697 0.259667
3000 240 48 0.22659 0.261585
3000 260 52 0.229682 0.262967
3000 280 56 0.232182 0.264865
3000 300 60 0.234071 0.265191
