1000 100 20 0.19563 0.24565
1000 120 24 0.205758 0.250442
1000 140 28 0.2131 0.255043
1000 160 32 0.217994 0.257856
1000 180 36 0.222933 0.259189
1000 200 40 0.22721 0.26289
1000 220 44 0.230109 0.263282
1000 240 48 0.233846 0.265354
1000 260 52 0.236281 0.267142
1000 280 56 0.238379 0.267964
1000 300 60 0.24059 0.269703
1200 100 20 0.194258 0.244158
1200 120 24 0.204292 0.249403
1200 140 28 0.211708 0.252435
1200 160 32 0.217615 0.25624
1200 180 36 0.222125 0.260431
1200 200 40 0.226204 0.260871
1200 220 44 0.229379 0.26322
1200 240 48 0.232444 0.264701
1200 260 52 0.234865 0.266622
1200 280 56 0.237113 0.267685
1200 300 60 0.239333 0.268461
1400 100 20 0.193264 0.243336
1400 120 24 0.202851 0.249196
1400 140 28 0.209388 0.252112
1400 160 32 0.216085 0.256826
1400 180 36 0.22052 0.259425
1400 200 40 0.224864 0.260271
1400 220 44 0.228266 0.262448
1400 240 48 0.23136 0.264253
1400 260 52 0.234365 0.265635
1400 280 56 0.236638 0.267265
1400 300 60 0.239055 0.268217
1600 100 20 0.19175 0.241988
1600 120 24 0.200922 0.248193
1600 140 28 0.208817 0.252835
1600 160 32 0.214824 0.254793
1600 180 36 0.220187 0.258403
1600 200 40 0.223794 0.259437
1600 220 44 0.227165 0.262716
1600 240 48 0.230711 0.263862
1600 260 52 0.233683 0.265721
1600 280 56 0.235842 0.266775
1600 300 60 0.23799 0.267731
1800 100 20 0.190339 0.241839
1800 120 24 0.200495 0.246708
1800 140 28 0.20804 0.251968
1800 160 32 0.213323 0.254878
1800 180 36 0.218818 0.256781
1800 200 40 0.223317 0.259783
1800 220 44 0.226864 0.26199
1800 240 48 0.229743 0.264141
1800 260 52 0.232479 0.264376
1800 280 56 0.235036 0.266897
1800 300 60 0.237113 0.266669
2000 100 20 0.189875 0.241285
2000 120 24 0.199096 0.248079
2000 140 28 0.206707 0.250686
2000 160 32 0.213469 0.254762
2000 180 36 0.218261 0.257572
2000 200 40 0.222358 0.259107
2000 220 44 0.226059 0.261123
2000 240 48 0.229238 0.263025
2000 260 52 0.232254 0.264362
2000 280 56 0.234266 0.265673
2000 300 60 0.236622 0.266902
2200 100 20 0.188841 0.240832
2200 120 24 0.197731 0.24589
2200 140 28 0.206987 0.250286
2200 160 32 0.212659 0.254307
2200 180 36 0.217503 0.257205
2200 200 40 0.221864 0.259082
2200 220 44 0.225308 0.260134
2200 240 48 0.22814 0.262004
2200 260 52 0.231198 0.264002
2200 280 56 0.233953 0.265836
2200 300 60 0.236198 0.266892
2400 100 20 0.187375 0.240742
2400 120 24 0.197868 0.245812
2400 140 28 0.205479 0.250211
2400 160 32 0.211354 0.253438
2400 180 36 0.216417 0.256495
2400 200 40 0.221077 0.259269
2400 220 44 0.224845 0.259951
2400 240 48 0.228418 0.262422
2400 260 52 0.231319 0.26403
2400 280 56 0.2334 0.265028
2400 300 60 0.235665 0.26539
2600 100 20 0.187042 0.239388
2600 120 24 0.19724 0.244522
2600 140 28 0.204805 0.250118
2600 160 32 0.211062 0.253183
2600 180 36 0.216218 0.255534
2600 200 40 0.220273 0.257708
2600 220 44 0.223825 0.259357
2600 240 48 0.227438 0.262377
2600 260 52 0.230479 0.263447
2600 280 56 0.233095 0.26479
2600 300 60 0.235097 0.266559
2800 100 20 0.185811 0.238996
2800 120 24 0.196711 0.245384
2800 140 28 0.204362 0.250357
2800 160 32 0.210321 0.252674
2800 180 36 0.21581 0.255683
2800 200 40 0.220071 0.2586
2800 220 44 0.224008 0.260625
2800 240 48 0.226876 0.261808
2800 260 52 0.229985 0.26362
2800 280 56 0.232515 0.264444
2800 300 60 0.234929 0.26544
3000 100 20 0.185847 0.239973
3000 120 24 0.195753 0.245114
3000 140 28 0.203817 0.249998
3000 160 32 0.210081 0.252594
3000 180 36 0.215152 0.254733
3000 200 40 0.2195 0.257687
3000 220 44 0.223671 0.260147
3000 240 48 0.226579 0.261115
3000 260 52 0.229818 0.26329
3000 280 56 0.231843 0.264655
3000 300 60 0.234533 0.265402
