1000 100 20 0.19674 0.24414
1000 120 24 0.204925 0.249975
1000 140 28 0.213093 0.254479
1000 160 32 0.218369 0.257869
1000 180 36 0.222956 0.259178
1000 200 40 0.22737 0.26148
1000 220 44 0.230332 0.262841
1000 240 48 0.233546 0.265146
1000 260 52 0.236331 0.266685
1000 280 56 0.237886 0.2679
1000 300 60 0.24023 0.268603
1200 100 20 0.195267 0.244783
1200 120 24 0.204042 0.250417
1200 140 28 0.210679 0.252798
1200 160 32 0.217193 0.256797
1200 180 36 0.221704 0.258954
1200 200 40 0.225333 0.260883
1200 220 44 0.229436 0.262527
1200 240 48 0.232347 0.265229
1200 260 52 0.234619 0.265747
1200 280 56 0.237429 0.267446
1200 300 60 0.239011 0.268111
1400 100 20 0.1931 0.244571
1400 120 24 0.202911 0.248613
1400 140 28 0.209776 0.253673
1400 160 32 0.216223 0.257295
1400 180 36 0.220885 0.258948
1400 200 40 0.224961 0.260618
1400 220 44 0.228403 0.263338
1400 240 48 0.231512 0.264548
1400 260 52 0.23397 0.26553
1400 280 56 0.236217 0.266793
1400 300 60 0.23859 0.268467
1600 100 20 0.191519 0.242894
1600 120 24 0.201911 0.248755
1600 140 28 0.208938 0.253062
1600 160 32 0.215461 0.255469
1600 180 36 0.219764 0.257951
1600 200 40 0.224022 0.260497
1600 220 44 0.22779 0.261778
1600 240 48 0.230729 0.264917
1600 260 52 0.233257 0.265349
1600 280 56 0.235663 0.266141
1600 300 60 0.237721 0.267729
1800 100 20 0.191061 0.242239
1800 120 24 0.199815 0.247926
1800 140 28 0.207603 0.252556
1800 160 32 0.213375 0.254806
1800 180 36 0.218725 0.257355
1800 200 40 0.2228 0.259356
1800 220 44 0.226465 0.261909
1800 240 48 0.229803 0.263762
1800 260 52 0.23263 0.265169
1800 280 56 0.235081 0.265641
1800 300 60 0.237274 0.267419
2000 100 20 0.18954 0.24152
2000 120 24 0.199754 0.247629
2000 140 28 0.206789 0.250725
2000 160 32 0.212991 0.254291
2000 180 36 0.217994 0.257278
2000 200 40 0.22271 0.25969
2000 220 44 0.226009 0.260959
2000 240 48 0.229271 0.262858
2000 260 52 0.232023 0.264623
2000 280 56 0.234268 0.265357
2000 300 60 0.236688 0.266645
2200 100 20 0.188186 0.240486
2200 120 24 0.198962 0.247803
2200 140 28 0.20626 0.251169
2200 160 32 0.212619 0.255199
2200 180 36 0.217442 0.256235
2200 200 40 0.22135 0.258668
2200 220 44 0.225262 0.260738
2200 240 48 0.228309 0.261888
2200 260 52 0.23108 0.263769
2200 280 56 0.234047 0.265969
2200 300 60 0.236148 0.266573
2400 100 20 0.187892 0.2415
2400 120 24 0.197608 0.246149
2400 140 28 0.205414 0.249479
2400 160 32 0.211984 0.253667
2400 180 36 0.216796 0.256755
2400 200 40 0.221077 0.259031
2400 220 44 0.224682 0.260295
2400 240 48 0.228161 0.262498
2400 260 52 0.230575 0.263133
2400 280 56 0.233412 0.26443
2400 300 60 0.235526 0.266682
2600 100 20 0.187173 0.240396
2600 120 24 0.197048 0.244965
2600 140 28 0.204788 0.249964
2600 160 32 0.211296 0.253103
2600 180 36 0.216314 0.256353
2600 200 40 0.220533 0.259029
2600 220 44 0.224565 0.26054
2600 240 48 0.227413 0.261478
2600 260 52 0.230719 0.263521
2600 280 56 0.232911 0.264628
2600 300 60 0.235008 0.266033
2800 100 20 0.186036 0.239414
2800 120 24 0.196426 0.245521
2800 140 28 0.204161 0.250038
2800 160 32 0.210783 0.253368
2800 180 36 0.215778 0.255234
2800 200 40 0.219802 0.257484
2800 220 44 0.223654 0.260472
2800 240 48 0.227049 0.262436
2800 260 52 0.230158 0.263282
2800 280 56 0.23251 0.264997
2800 300 60 0.234888 0.266214
3000 100 20 0.185683 0.239423
3000 120 24 0.196003 0.245042
3000 140 28 0.20355 0.249364
3000 160 32 0.209935 0.252931
3000 180 36 0.215246 0.255528
3000 200 40 0.219783 0.258083
3000 220 44 0.223476 0.259845
3000 240 48 0.226722 0.261053
3000 260 52 0.229338 0.262936
3000 280 56 0.232305 0.26454
3000 300 60 0.234282 0.265147
