1000 100 20 0.19673 0.28385
1000 120 24 0.206017 0.285717
1000 140 28 0.213007 0.284321
1000 160 32 0.219069 0.285569
1000 180 36 0.223544 0.285356
1000 200 40 0.227085 0.286005
1000 220 44 0.230436 0.287455
1000 240 48 0.233808 0.287733
1000 260 52 0.236408 0.287369
1000 280 56 0.238636 0.288564
1000 300 60 0.240407 0.289073
1200 100 20 0.194592 0.282142
1200 120 24 0.203882 0.284188
1200 140 28 0.211119 0.283786
1200 160 32 0.217323 0.285479
1200 180 36 0.222394 0.286449
1200 200 40 0.225271 0.286304
1200 220 44 0.229197 0.286598
1200 240 48 0.232576 0.286778
1200 260 52 0.234776 0.287699
1200 280 56 0.236753 0.288664
1200 300 60 0.239467 0.288667
1400 100 20 0.193257 0.281086
1400 120 24 0.202536 0.281619
1400 140 28 0.210643 0.284622
1400 160 32 0.215357 0.28425
1400 180 36 0.220532 0.286762
1400 200 40 0.224475 0.284668
1400 220 44 0.228312 0.287039
1400 240 48 0.231372 0.287771
1400 260 52 0.234025 0.287332
1400 280 56 0.236224 0.288316
1400 300 60 0.238548 0.288086
1600 100 20 0.191994 0.281544
1600 120 24 0.201245 0.282443
1600 140 28 0.209152 0.28292
1600 160 32 0.215473 0.285371
1600 180 36 0.219986 0.284854
1600 200 40 0.223931 0.286337
1600 220 44 0.227511 0.286648
1600 240 48 0.230258 0.28719
1600 260 52 0.233394 0.285837
1600 280 56 0.235424 0.287875
1600 300 60 0.237623 0.287935
1800 100 20 0.190683 0.281461
1800 120 24 0.200125 0.28319
1800 140 28 0.207845 0.282369
1800 160 32 0.214118 0.284243
1800 180 36 0.218932 0.285185
1800 200 40 0.223233 0.285861
1800 220 44 0.226917 0.286826
1800 240 48 0.229854 0.286613
1800 260 52 0.232609 0.286387
1800 280 56 0.235349 0.28769
1800 300 60 0.237115 0.287507
2000 100 20 0.189165 0.281095
2000 120 24 0.199167 0.283225
2000 140 28 0.206936 0.283043
2000 160 32 0.212913 0.283994
2000 180 36 0.218172 0.285739
2000 200 40 0.222183 0.285132
2000 220 44 0.225816 0.286602
2000 240 48 0.229138 0.28735
2000 260 52 0.232065 0.287527
2000 280 56 0.234548 0.287098
2000 300 60 0.236612 0.287625
2200 100 20 0.188405 0.279677
2200 120 24 0.198386 0.2815
2200 140 28 0.205799 0.282636
2200 160 32 0.212693 0.284028
2200 180 36 0.21753 0.284773
2200 200 40 0.221502 0.285407
2200 220 44 0.225552 0.285915
2200 240 48 0.228659 0.285489
2200 260 52 0.23117 0.286862
2200 280 56 0.234383 0.287399
2200 300 60 0.236238 0.28805
2400 100 20 0.188004 0.281046
2400 120 24 0.197937 0.282701
2400 140 28 0.205283 0.282551
2400 160 32 0.211828 0.285161
2400 180 36 0.216481 0.284588
2400 200 40 0.221035 0.285019
2400 220 44 0.224799 0.287053
2400 240 48 0.228286 0.287606
2400 260 52 0.230976 0.286902
2400 280 56 0.233338 0.2871
2400 300 60 0.235464 0.287664
2600 100 20 0.186785 0.280115
2600 120 24 0.197202 0.282061
2600 140 28 0.204945 0.283824
2600 160 32 0.211233 0.284709
2600 180 36 0.216043 0.284782
2600 200 40 0.220352 0.28549
2600 220 44 0.224531 0.286629
2600 240 48 0.227429 0.286192
2600 260 52 0.230214 0.285928
2600 280 56 0.232896 0.286626
2600 300 60 0.235172 0.287631
2800 100 20 0.186214 0.28075
2800 120 24 0.196235 0.282182
2800 140 28 0.204319 0.283339
2800 160 32 0.210266 0.283792
2800 180 36 0.215573 0.284335
2800 200 40 0.219961 0.285382
2800 220 44 0.2238 0.286404
2800 240 48 0.227071 0.286307
2800 260 52 0.230301 0.286293
2800 280 56 0.232136 0.287165
2800 300 60 0.234842 0.287818
3000 100 20 0.185267 0.280627
3000 120 24 0.196172 0.282883
3000 140 28 0.203648 0.283124
3000 160 32 0.20975 0.284654
3000 180 36 0.215181 0.285522
3000 200 40 0.219587 0.28587
3000 220 44 0.223808 0.286341
3000 240 48 0.226767 0.286336
3000 260 52 0.229395 0.286574
3000 280 56 0.232089 0.286906
3000 300 60 0.23415 0.28749
