2 0.019270656753135215 0.05124829294599804
3 0.01942971007432629 0.05141957375233024
4 0.01920491371252661 0.051367413655612766
5 0.019419163248048994 0.05131624571836435
6 0.019552583464783252 0.051293490689385435
7 0.019911539714403306 0.05140839266182459
8 0.019256436377475334 0.05122871378597764
9 0.018959249105082395 0.051327382734940176
10 0.01996989899104652 0.051375201677910945
11 0.019516109242387805 0.051301881597003406
12 0.019680320099086504 0.05134942712834968
13 0.019776949331265357 0.051503498282643695
14 0.019523295467375277 0.051225102057372296
15 0.019600315083920652 0.05135116673280713
16 0.0193079211897575 0.05130402036699271
17 0.019940135043326503 0.051249462399389926
18 0.020292573440108437 0.05137692272338697
19 0.019845545577615524 0.051241190817395636
20 0.019959372378326273 0.05134833745679552
